XYZ (458 points)
549.577 407.958 1.669
540.513 407.192 1.639
552.752 412.017 1.666
547.137 409.511 1.653
550.201 413.485 1.651
543.742 411.333 1.638
555.927 416.076 1.663
553.347 417.543 1.649
546.971 415.390 1.637
550.118 419.365 1.635
543.178 417.192 1.622
559.101 420.134 1.659
556.576 421.766 1.647
594.234 406.000 1.818
590.766 405.992 1.775
562.276 424.193 1.656
559.806 425.575 1.645
556.411 427.314 1.633
601.366 409.782 1.910
596.713 409.787 1.845
605.718 409.116 1.975
593.421 409.759 1.780
609.816 408.902 2.040
613.915 408.688 2.105
618.014 408.474 2.170
565.451 428.252 1.653
562.870 429.632 1.643
559.806 431.371 1.632
621.130 408.353 2.204
555.940 433.150 1.622
623.194 408.571 2.334
624.715 408.571 2.513
602.879 413.672 1.893
606.337 412.916 1.929
600.070 414.320 1.857
596.076 413.525 1.785
609.987 412.031 2.001
614.082 411.875 2.073
617.996 411.647 2.145
568.626 432.311 1.650
621.037 411.837 2.217
566.099 433.772 1.641
622.899 410.659 2.365
624.854 410.646 2.570
626.306 408.641 2.025
627.966 408.641 1.311
629.694 408.641 0.505
606.445 416.373 1.927
602.014 417.562 1.859
610.255 415.443 1.996
598.730 417.291 1.790
614.097 414.827 2.065
617.939 414.211 2.133
571.452 435.330 1.663
574.278 438.349 1.675
568.832 436.919 1.652
621.569 413.319 2.283
623.469 411.837 2.456
618.503 415.958 2.267
565.685 438.575 1.641
626.098 413.136 2.062
624.869 412.978 2.628
627.716 413.222 1.312
629.594 413.155 0.513
607.550 419.053 1.923
610.821 418.267 1.986
604.176 420.155 1.859
601.009 420.624 1.795
614.091 417.482 2.050
614.925 418.636 2.250
577.104 441.368 1.688
571.895 440.148 1.663
574.628 443.378 1.674
568.500 441.970 1.651
623.507 413.319 2.456
621.186 416.755 2.412
623.314 417.032 2.551
617.630 420.996 2.443
620.565 421.542 2.544
565.113 443.931 1.639
625.845 417.223 2.063
627.551 417.464 1.313
624.665 417.141 2.672
629.389 417.418 0.520
610.949 419.726 1.967
607.422 422.419 1.883
604.472 422.099 1.839
604.040 424.824 1.800
611.906 420.848 2.233
579.519 444.099 1.700
576.946 446.110 1.686
571.647 445.365 1.661
573.965 448.263 1.671
568.104 447.327 1.648
622.934 421.654 2.638
624.501 421.738 2.715
617.034 426.206 2.619
619.945 426.328 2.677
612.778 426.106 2.479
622.555 426.275 2.726
565.104 449.313 1.635
625.647 421.584 2.064
627.386 421.706 1.315
629.183 421.682 0.527
608.362 423.549 2.217
604.818 426.250 2.200
603.384 427.437 2.150
600.317 429.811 2.100
597.152 432.334 2.050
594.085 434.658 2.000
590.870 437.181 1.950
587.903 439.505 1.900
584.564 442.102 1.850
581.671 444.352 1.800
582.536 446.773 1.690
579.596 449.008 1.683
576.392 451.611 1.676
570.860 450.558 1.657
573.567 453.890 1.669
567.974 452.711 1.643
624.172 426.171 2.759
625.450 425.946 2.065
617.034 430.312 2.595
619.981 430.615 2.678
612.969 430.325 2.398
622.532 430.459 2.750
609.989 426.387 2.340
624.172 430.276 2.806
627.221 425.948 1.316
628.978 425.946 0.534
606.796 428.835 2.200
604.818 430.157 2.125
601.752 432.482 2.051
598.765 435.015 1.978
595.619 437.333 1.907
592.389 439.652 1.839
589.491 441.970 1.774
585.875 444.402 1.718
584.689 449.422 1.679
588.030 446.948 1.710
581.790 451.989 1.671
578.849 454.433 1.669
576.075 456.744 1.663
570.742 456.169 1.661
573.302 459.054 1.656
625.339 430.079 2.090
627.134 430.086 1.364
617.026 434.053 2.563
620.084 434.283 2.673
613.405 433.936 2.299
622.542 434.335 2.771
611.274 433.907 2.200
609.031 431.389 2.200
624.090 434.299 2.853
625.228 434.212 2.115
628.916 430.087 0.609
606.800 433.039 2.119
603.764 435.368 2.044
600.551 437.944 1.972
597.559 440.309 1.904
594.315 442.646 1.835
591.287 444.763 1.769
587.173 451.989 1.667
590.185 449.494 1.703
584.440 454.639 1.659
593.386 447.350 1.763
581.305 457.256 1.663
578.583 459.598 1.657
575.861 461.940 1.651
627.047 434.225 1.413
628.854 434.227 0.683
617.211 437.600 2.531
620.188 437.950 2.668
613.501 437.242 2.200
622.553 438.211 2.792
624.254 438.321 2.901
610.840 439.158 2.109
608.781 435.920 2.114
625.486 438.404 2.141
626.960 438.364 1.462
605.777 438.253 2.036
602.664 440.686 1.966
599.647 442.993 1.900
596.473 445.242 1.832
589.657 454.722 1.656
592.555 452.238 1.696
586.759 457.454 1.647
595.484 449.937 1.757
583.762 460.078 1.656
598.632 447.839 1.829
581.091 462.452 1.651
628.793 438.368 0.757
617.481 441.887 2.637
620.348 442.112 2.755
614.406 441.393 2.377
622.592 442.333 2.859
624.330 442.516 2.948
625.404 442.426 2.166
612.387 442.715 2.331
607.789 441.139 2.029
609.902 444.371 2.330
626.873 442.502 1.510
628.731 442.508 0.832
604.777 443.428 1.959
601.735 445.677 1.897
592.063 457.594 1.742
595.075 455.382 1.876
589.048 460.244 1.734
597.943 452.711 2.028
586.219 462.901 1.650
600.713 450.535 2.189
583.600 465.306 1.645
603.635 448.250 2.346
580.981 467.711 1.640
630.556 442.488 0.091
617.750 446.174 2.743
620.508 446.274 2.842
614.991 445.863 2.554
622.630 446.456 2.926
624.244 446.637 2.995
625.322 446.613 2.191
626.786 446.641 1.559
612.390 447.768 2.539
606.720 446.207 2.335
609.279 449.507 2.529
628.669 446.649 0.906
630.528 446.628 0.206
594.784 460.736 1.829
597.844 458.646 1.988
591.822 463.207 1.822
600.713 456.173 2.162
589.069 466.126 1.773
603.285 453.898 2.344
586.392 468.478 1.761
606.153 451.227 2.523
583.716 470.829 1.750
617.652 450.013 2.777
620.423 450.137 2.882
622.547 450.429 2.969
614.758 451.192 2.734
624.158 450.757 3.043
625.322 450.718 2.217
626.699 450.780 1.608
628.607 450.789 0.980
611.666 452.768 2.693
608.567 454.334 2.654
630.501 450.769 0.321
597.719 464.380 1.916
600.419 461.849 2.088
594.708 466.811 1.910
603.143 459.356 2.273
591.920 469.351 1.895
605.869 456.865 2.465
589.185 471.649 1.878
586.450 473.947 1.861
617.342 454.897 2.922
620.197 454.697 2.994
622.249 454.825 3.049
624.072 454.878 3.090
614.485 456.589 2.843
625.075 454.987 2.242
626.612 454.918 1.656
628.545 454.929 1.054
630.473 454.910 0.437
611.628 458.280 2.765
608.869 460.669 2.571
600.548 467.773 2.003
603.308 465.385 2.184
597.438 469.946 1.997
606.087 463.026 2.375
594.771 472.575 2.017
591.978 474.820 1.994
619.780 459.378 2.955
617.226 460.762 2.909
622.318 459.466 3.025
624.172 459.666 3.095
625.486 459.748 2.139
614.687 462.228 2.864
627.076 459.774 1.543
628.974 459.784 0.930
630.862 459.767 0.289
611.867 464.474 2.668
609.031 466.697 2.470
603.376 471.166 2.090
606.196 468.920 2.276
600.246 473.316 2.085
597.621 475.800 2.140
594.771 477.992 2.111
620.366 464.577 2.997
622.524 464.492 3.046
617.745 466.177 2.955
624.336 464.510 3.100
625.978 464.510 2.037
627.540 464.630 1.431
614.866 468.281 2.759
629.403 464.638 0.805
631.250 464.624 0.142
611.975 470.368 2.561
609.085 472.456 2.367
606.204 474.559 2.177
603.054 476.685 2.173
600.472 479.025 2.263
597.563 481.163 2.227
620.803 470.127 3.040
623.049 469.789 3.067
624.829 469.517 3.105
617.863 472.087 2.845
626.389 469.517 1.934
628.003 469.486 1.318
629.832 469.492 0.680
614.918 474.039 2.650
611.973 475.992 2.456
609.033 477.952 2.264
605.862 480.055 2.260
603.322 482.250 2.385
600.356 484.334 2.344
597.390 486.419 2.303
623.480 474.469 3.120
620.709 476.008 2.928
625.322 474.361 3.111
626.963 474.361 1.831
617.861 477.711 2.736
628.467 474.342 1.205
630.261 474.347 0.555
614.861 479.528 2.543
611.861 481.345 2.351
608.671 483.425 2.348
606.173 485.474 2.507
603.149 487.505 2.460
600.124 489.537 2.413
625.814 479.040 3.116
623.303 479.800 2.992
620.506 481.447 2.869
627.374 479.205 1.728
628.931 479.198 1.092
617.709 483.093 2.745
630.690 479.201 0.430
614.736 484.838 2.572
611.620 486.780 2.540
609.024 488.699 2.630
605.941 490.677 2.577
602.859 492.654 2.523
599.777 494.632 2.470
626.389 484.130 3.121
627.658 484.049 1.626
623.588 484.794 3.034
620.806 486.499 2.947
629.394 484.054 0.979
631.119 484.055 0.305
617.611 488.330 2.792
614.569 490.135 2.732
611.874 491.924 2.753
608.734 493.848 2.693
605.594 495.772 2.634
602.454 497.696 2.574
626.553 489.220 3.131
628.113 489.056 1.523
629.858 488.910 0.867
623.946 489.819 3.148
620.485 491.823 3.012
631.548 488.910 0.180
617.518 493.490 2.923
614.725 495.149 2.875
611.527 497.019 2.810
608.329 498.890 2.744
626.389 493.900 3.151
627.707 493.619 1.783
629.429 493.630 1.043
631.151 493.640 0.300
623.360 495.316 3.233
620.468 496.845 3.115
617.576 498.373 2.997
614.320 500.191 2.926
611.064 502.008 2.855
607.808 503.825 2.783
626.002 498.313 3.170
627.538 498.497 2.043
629.000 498.350 1.219
630.754 498.371 0.421
622.959 499.600 3.170
620.178 501.394 3.120
617.112 503.362 3.043
613.798 505.126 2.965
610.485 506.890 2.888
626.865 502.327 3.233
628.569 502.533 2.547
625.292 503.009 2.803
630.352 502.686 2.331
631.692 502.828 1.108
622.420 504.741 2.859
619.405 506.560 2.902
616.267 508.277 2.944
612.975 510.015 2.877
627.727 506.341 3.296
629.833 506.790 3.052
626.504 506.666 2.815
631.319 507.010 3.444
623.914 508.253 2.851
632.474 507.340 1.795
621.325 509.840 2.887
618.735 511.428 2.923
629.035 511.991 3.359
630.989 512.073 3.556
627.109 512.211 2.828
632.419 512.183 3.556
624.577 512.871 2.865
621.344 514.584 2.902
617.955 516.266 2.857
630.218 516.916 3.422
631.611 516.867 2.938
628.182 515.980 2.840
632.874 516.968 2.855
625.943 516.211 2.861
623.677 517.725 2.882
631.209 521.813 3.548
632.694 521.538 2.362
629.007 518.897 2.852
626.140 520.880 2.861
632.300 526.573 3.611
629.888 522.529 2.864
630.766 526.743 2.876
633.795 526.106 0.358
628.402 523.740 2.840
625.426 525.642 2.826
632.536 523.560 2.863
633.864 523.482 0.298
632.801 518.823 2.655
632.650 514.606 3.201
631.928 509.875 3.506
630.797 504.677 2.844
632.017 504.705 1.394
629.640 500.404 1.746
631.186 500.425 0.737
633.117 504.731 0.341
632.726 500.445 0.053
624.300 419.360 2.673
624.439 415.279 2.617
624.172 428.209 2.782
625.389 428.200 2.078
627.174 428.188 1.342
628.945 428.176 0.574
624.334 423.989 2.737
629.076 423.922 0.531
627.299 423.947 1.315
629.296 419.342 0.523
627.478 419.348 1.314
625.748 419.354 2.063
629.491 415.288 0.516
627.636 415.285 1.313
625.932 415.282 2.063
626.168 410.784 2.041
627.896 410.784 1.311
629.556 410.784 0.508
625.539 423.972 2.159
624.896 406.569 2.490
626.351 406.581 2.024
628.037 406.595 1.310
629.834 406.610 0.502
